{
  "rules":{
    "chat_history":{
      ".write":"auth != null",
      ".read":"auth != null",
    },
    "users":{
      ".write":"auth != null",
      ".read":"auth != null",
    },
    ".write":"false",
    ".read":"false"
  }
}